step2/Part2 - Cache/cpu_wavedata.vcd
$date
	Wed Jul 03 17:18:34 2024
$end
$version
	Icarus Verilog
$end
$timescale
	100ps
$end
$scope module cpu_tb $end
$scope module mycpu $end
$scope module REGITSERS $end
$var reg 8 ! \registers[0] [7:0] $end
$upscope $end
$upscope $end
$upscope $end
$scope module cpu_tb $end
$scope module mycpu $end
$scope module REGITSERS $end
$var reg 8 " \registers[1] [7:0] $end
$upscope $end
$upscope $end
$upscope $end
$scope module cpu_tb $end
$scope module mycpu $end
$scope module REGITSERS $end
$var reg 8 # \registers[2] [7:0] $end
$upscope $end
$upscope $end
$upscope $end
$scope module cpu_tb $end
$scope module mycpu $end
$scope module REGITSERS $end
$var reg 8 $ \registers[3] [7:0] $end
$upscope $end
$upscope $end
$upscope $end
$scope module cpu_tb $end
$scope module mycpu $end
$scope module REGITSERS $end
$var reg 8 % \registers[4] [7:0] $end
$upscope $end
$upscope $end
$upscope $end
$scope module cpu_tb $end
$scope module mycpu $end
$scope module REGITSERS $end
$var reg 8 & \registers[5] [7:0] $end
$upscope $end
$upscope $end
$upscope $end
$scope module cpu_tb $end
$scope module mycpu $end
$scope module REGITSERS $end
$var reg 8 ' \registers[6] [7:0] $end
$upscope $end
$upscope $end
$upscope $end
$scope module cpu_tb $end
$scope module mycpu $end
$scope module REGITSERS $end
$var reg 8 ( \registers[7] [7:0] $end
$upscope $end
$upscope $end
$upscope $end
$scope module cpu_tb $end
$scope module mycache2 $end
$var reg 32 ) \cache_mem[0] [31:0] $end
$upscope $end
$upscope $end
$scope module cpu_tb $end
$scope module mycache2 $end
$var reg 32 * \cache_mem[1] [31:0] $end
$upscope $end
$upscope $end
$scope module cpu_tb $end
$scope module mycache2 $end
$var reg 32 + \cache_mem[2] [31:0] $end
$upscope $end
$upscope $end
$scope module cpu_tb $end
$scope module mycache2 $end
$var reg 32 , \cache_mem[3] [31:0] $end
$upscope $end
$upscope $end
$scope module cpu_tb $end
$scope module mycache2 $end
$var reg 32 - \cache_mem[4] [31:0] $end
$upscope $end
$upscope $end
$scope module cpu_tb $end
$scope module mycache2 $end
$var reg 32 . \cache_mem[5] [31:0] $end
$upscope $end
$upscope $end
$scope module cpu_tb $end
$scope module mycache2 $end
$var reg 32 / \cache_mem[6] [31:0] $end
$upscope $end
$upscope $end
$scope module cpu_tb $end
$scope module mycache2 $end
$var reg 32 0 \cache_mem[7] [31:0] $end
$upscope $end
$upscope $end
$scope module cpu_tb $end
$var wire 8 1 WRITEDATA [7:0] $end
$var wire 1 2 WRITE $end
$var wire 8 3 READDATA [7:0] $end
$var wire 1 4 READ $end
$var wire 32 5 PC [31:0] $end
$var wire 32 6 MEM_WRITE_DATA [31:0] $end
$var wire 1 7 MEM_WRITE $end
$var wire 32 8 MEM_READ_DATA [31:0] $end
$var wire 1 9 MEM_READ $end
$var wire 1 : MEM_BUSYWAIT $end
$var wire 6 ; MEM_ADDRESS [5:0] $end
$var wire 1 < BUSYWAIT $end
$var wire 8 = ADDRESS [7:0] $end
$var reg 1 > CLK $end
$var reg 32 ? INSTRUCTION [31:0] $end
$var reg 1 @ RESET $end
$scope module mycache2 $end
$var wire 3 A cache_tag [2:0] $end
$var wire 1 > clock $end
$var wire 1 B dirty $end
$var wire 1 @ reset $end
$var wire 1 2 write $end
$var wire 3 C tag [2:0] $end
$var wire 1 4 read $end
$var wire 2 D offset [1:0] $end
$var wire 32 E mem_readData [31:0] $end
$var wire 1 : mem_busywait $end
$var wire 3 F index [2:0] $end
$var wire 8 G cpu_writeData [7:0] $end
$var wire 8 H cpu_address [7:0] $end
$var parameter 3 I IDLE $end
$var parameter 3 J MEM_READ $end
$var parameter 3 K MEM_WRITE $end
$var reg 1 < busywait $end
$var reg 8 L cpu_readData [7:0] $end
$var reg 1 M hit $end
$var reg 6 N mem_address [5:0] $end
$var reg 1 9 mem_read $end
$var reg 1 7 mem_write $end
$var reg 32 O mem_writeData [31:0] $end
$var reg 3 P next_state [2:0] $end
$var reg 3 Q state [2:0] $end
$var reg 1 R taghit $end
$var reg 1 S writehit $end
$var integer 32 T i [31:0] $end
$scope begin $ivl_for_loop1 $end
$var integer 32 U i [31:0] $end
$upscope $end
$upscope $end
$scope module mycpu $end
$var wire 1 < BUSYWAIT $end
$var wire 1 > CLK $end
$var wire 32 V INSTRUCTION [31:0] $end
$var wire 8 W READDATA [7:0] $end
$var wire 1 @ RESET $end
$var wire 32 X target [31:0] $end
$var wire 32 Y ex_JIMMEDIATE [31:0] $end
$var wire 1 Z ZERO $end
$var wire 8 [ TWOS_OUT [7:0] $end
$var wire 8 \ REGOUT2 [7:0] $end
$var wire 8 ] REGOUT1 [7:0] $end
$var wire 32 ^ PC_reg [31:0] $end
$var wire 32 _ PC_OUT [31:0] $end
$var wire 1 ` OUT $end
$var wire 8 a MUX1_OUT [7:0] $end
$var wire 8 b MEMUXOUT [7:0] $end
$var wire 8 c ALURESULT [7:0] $end
$var wire 8 d ALUIN2 [7:0] $end
$var reg 3 e ALUOP [2:0] $end
$var reg 1 f BRANCH $end
$var reg 8 g IMMEDIATE [7:0] $end
$var reg 8 h JIMMEDIATE [7:0] $end
$var reg 1 i JUMP $end
$var reg 1 j MEMORYCONTROL $end
$var reg 1 k MUX1_SWITCH $end
$var reg 1 l MUX2_SWITCH $end
$var reg 8 m OPCODE [7:0] $end
$var reg 32 n PC [31:0] $end
$var reg 1 o R $end
$var reg 1 4 READ $end
$var reg 3 p READREG1 [2:0] $end
$var reg 3 q READREG2 [2:0] $end
$var reg 2 r RS [1:0] $end
$var reg 1 2 WRITE $end
$var reg 1 s WRITEENABLE $end
$var reg 3 t WRITEREG [2:0] $end
$scope module ALU $end
$var wire 1 o R $end
$var wire 2 u RS [1:0] $end
$var wire 3 v SELECT [2:0] $end
$var wire 8 w orOut [7:0] $end
$var wire 8 x fOut [7:0] $end
$var wire 8 y andOut [7:0] $end
$var wire 8 z addOut [7:0] $end
$var wire 8 { SHIFT_OUT [7:0] $end
$var wire 8 | PRODUCT [7:0] $end
$var wire 8 } DATA2 [7:0] $end
$var wire 8 ~ DATA1 [7:0] $end
$var reg 8 !" RESULT [7:0] $end
$var reg 1 Z ZERO $end
$scope module add_1 $end
$var wire 8 "" DATA2 [7:0] $end
$var wire 8 #" DATA1 [7:0] $end
$var reg 8 $" addOut [7:0] $end
$upscope $end
$scope module alu_shift $end
$var wire 1 o R $end
$var wire 2 %" RS [1:0] $end
$var wire 8 &" SHIFT_OUT [7:0] $end
$var wire 1 '" S2 $end
$var wire 1 (" S1 $end
$var wire 1 )" S0 $end
$var wire 1 *" RS1 $end
$var wire 1 +" RS0 $end
$var wire 8 ," DATA2 [7:0] $end
$var wire 8 -" DATA1 [7:0] $end
$scope module shifter $end
$var wire 8 ." OUT [7:0] $end
$var wire 1 o R $end
$var wire 1 +" RS0 $end
$var wire 1 *" RS1 $end
$var wire 1 )" S0 $end
$var wire 1 (" S1 $end
$var wire 1 '" S2 $end
$var wire 8 /" R3 [7:0] $end
$var wire 8 0" R2 [7:0] $end
$var wire 8 1" R1 [7:0] $end
$var wire 8 2" L3_OUT [7:0] $end
$var wire 8 3" L3_IN [7:0] $end
$var wire 8 4" L3 [7:0] $end
$var wire 8 5" L2_OUT [7:0] $end
$var wire 8 6" L2_IN [7:0] $end
$var wire 8 7" L2 [7:0] $end
$var wire 8 8" L1_OUT [7:0] $end
$var wire 8 9" L1_IN [7:0] $end
$var wire 8 :" L1 [7:0] $end
$var wire 8 ;" IN [7:0] $end
$scope module layer1 $end
$var wire 1 )" SWITCH $end
$var wire 8 <" OUT [7:0] $end
$var wire 8 =" IN_1 [7:0] $end
$var wire 8 >" IN_0 [7:0] $end
$scope module mux0 $end
$var wire 1 ?" IN0 $end
$var wire 1 @" IN1 $end
$var wire 1 )" SWITCH $end
$var reg 1 A" OUT $end
$upscope $end
$scope module mux1 $end
$var wire 1 B" IN0 $end
$var wire 1 C" IN1 $end
$var wire 1 )" SWITCH $end
$var reg 1 D" OUT $end
$upscope $end
$scope module mux2 $end
$var wire 1 E" IN0 $end
$var wire 1 F" IN1 $end
$var wire 1 )" SWITCH $end
$var reg 1 G" OUT $end
$upscope $end
$scope module mux3 $end
$var wire 1 H" IN0 $end
$var wire 1 I" IN1 $end
$var wire 1 )" SWITCH $end
$var reg 1 J" OUT $end
$upscope $end
$scope module mux4 $end
$var wire 1 K" IN0 $end
$var wire 1 L" IN1 $end
$var wire 1 )" SWITCH $end
$var reg 1 M" OUT $end
$upscope $end
$scope module mux5 $end
$var wire 1 N" IN0 $end
$var wire 1 O" IN1 $end
$var wire 1 )" SWITCH $end
$var reg 1 P" OUT $end
$upscope $end
$scope module mux6 $end
$var wire 1 Q" IN0 $end
$var wire 1 R" IN1 $end
$var wire 1 )" SWITCH $end
$var reg 1 S" OUT $end
$upscope $end
$scope module mux7 $end
$var wire 1 T" IN0 $end
$var wire 1 U" IN1 $end
$var wire 1 )" SWITCH $end
$var reg 1 V" OUT $end
$upscope $end
$upscope $end
$scope module layer2 $end
$var wire 8 W" IN_0 [7:0] $end
$var wire 1 (" SWITCH $end
$var wire 8 X" OUT [7:0] $end
$var wire 8 Y" IN_1 [7:0] $end
$scope module mux0 $end
$var wire 1 Z" IN0 $end
$var wire 1 [" IN1 $end
$var wire 1 (" SWITCH $end
$var reg 1 \" OUT $end
$upscope $end
$scope module mux1 $end
$var wire 1 ]" IN0 $end
$var wire 1 ^" IN1 $end
$var wire 1 (" SWITCH $end
$var reg 1 _" OUT $end
$upscope $end
$scope module mux2 $end
$var wire 1 `" IN0 $end
$var wire 1 a" IN1 $end
$var wire 1 (" SWITCH $end
$var reg 1 b" OUT $end
$upscope $end
$scope module mux3 $end
$var wire 1 c" IN0 $end
$var wire 1 d" IN1 $end
$var wire 1 (" SWITCH $end
$var reg 1 e" OUT $end
$upscope $end
$scope module mux4 $end
$var wire 1 f" IN0 $end
$var wire 1 g" IN1 $end
$var wire 1 (" SWITCH $end
$var reg 1 h" OUT $end
$upscope $end
$scope module mux5 $end
$var wire 1 i" IN0 $end
$var wire 1 j" IN1 $end
$var wire 1 (" SWITCH $end
$var reg 1 k" OUT $end
$upscope $end
$scope module mux6 $end
$var wire 1 l" IN0 $end
$var wire 1 m" IN1 $end
$var wire 1 (" SWITCH $end
$var reg 1 n" OUT $end
$upscope $end
$scope module mux7 $end
$var wire 1 o" IN0 $end
$var wire 1 p" IN1 $end
$var wire 1 (" SWITCH $end
$var reg 1 q" OUT $end
$upscope $end
$upscope $end
$scope module layer3 $end
$var wire 8 r" IN_0 [7:0] $end
$var wire 1 '" SWITCH $end
$var wire 8 s" OUT [7:0] $end
$var wire 8 t" IN_1 [7:0] $end
$scope module mux0 $end
$var wire 1 u" IN0 $end
$var wire 1 v" IN1 $end
$var wire 1 '" SWITCH $end
$var reg 1 w" OUT $end
$upscope $end
$scope module mux1 $end
$var wire 1 x" IN0 $end
$var wire 1 y" IN1 $end
$var wire 1 '" SWITCH $end
$var reg 1 z" OUT $end
$upscope $end
$scope module mux2 $end
$var wire 1 {" IN0 $end
$var wire 1 |" IN1 $end
$var wire 1 '" SWITCH $end
$var reg 1 }" OUT $end
$upscope $end
$scope module mux3 $end
$var wire 1 ~" IN0 $end
$var wire 1 !# IN1 $end
$var wire 1 '" SWITCH $end
$var reg 1 "# OUT $end
$upscope $end
$scope module mux4 $end
$var wire 1 ## IN0 $end
$var wire 1 $# IN1 $end
$var wire 1 '" SWITCH $end
$var reg 1 %# OUT $end
$upscope $end
$scope module mux5 $end
$var wire 1 &# IN0 $end
$var wire 1 '# IN1 $end
$var wire 1 '" SWITCH $end
$var reg 1 (# OUT $end
$upscope $end
$scope module mux6 $end
$var wire 1 )# IN0 $end
$var wire 1 *# IN1 $end
$var wire 1 '" SWITCH $end
$var reg 1 +# OUT $end
$upscope $end
$scope module mux7 $end
$var wire 1 ,# IN0 $end
$var wire 1 -# IN1 $end
$var wire 1 '" SWITCH $end
$var reg 1 .# OUT $end
$upscope $end
$upscope $end
$scope module mux31 $end
$var wire 1 /# IN0 $end
$var wire 1 0# IN1 $end
$var wire 1 1# IN2 $end
$var wire 1 +" R0 $end
$var wire 1 *" R1 $end
$var reg 1 2# OUT $end
$upscope $end
$scope module mux32 $end
$var wire 1 3# IN0 $end
$var wire 1 4# IN1 $end
$var wire 1 5# IN2 $end
$var wire 1 +" R0 $end
$var wire 1 *" R1 $end
$var reg 1 6# OUT $end
$upscope $end
$scope module mux33 $end
$var wire 1 7# IN0 $end
$var wire 1 8# IN1 $end
$var wire 1 9# IN2 $end
$var wire 1 +" R0 $end
$var wire 1 *" R1 $end
$var reg 1 :# OUT $end
$upscope $end
$scope module mux34 $end
$var wire 1 ;# IN0 $end
$var wire 1 <# IN1 $end
$var wire 1 =# IN2 $end
$var wire 1 +" R0 $end
$var wire 1 *" R1 $end
$var reg 1 ># OUT $end
$upscope $end
$scope module mux35 $end
$var wire 1 ?# IN0 $end
$var wire 1 @# IN1 $end
$var wire 1 A# IN2 $end
$var wire 1 +" R0 $end
$var wire 1 *" R1 $end
$var reg 1 B# OUT $end
$upscope $end
$scope module mux36 $end
$var wire 1 C# IN0 $end
$var wire 1 D# IN1 $end
$var wire 1 E# IN2 $end
$var wire 1 +" R0 $end
$var wire 1 *" R1 $end
$var reg 1 F# OUT $end
$upscope $end
$scope module mux37 $end
$var wire 1 G# IN0 $end
$var wire 1 H# IN1 $end
$var wire 1 I# IN2 $end
$var wire 1 +" R0 $end
$var wire 1 *" R1 $end
$var reg 1 J# OUT $end
$upscope $end
$scope module mux_L1 $end
$var wire 8 K# IN0 [7:0] $end
$var wire 8 L# IN1 [7:0] $end
$var wire 1 o SWITCH $end
$var reg 8 M# OUT [7:0] $end
$upscope $end
$scope module mux_L2 $end
$var wire 8 N# IN0 [7:0] $end
$var wire 8 O# IN1 [7:0] $end
$var wire 1 o SWITCH $end
$var reg 8 P# OUT [7:0] $end
$upscope $end
$scope module mux_L3 $end
$var wire 8 Q# IN0 [7:0] $end
$var wire 8 R# IN1 [7:0] $end
$var wire 1 o SWITCH $end
$var reg 8 S# OUT [7:0] $end
$upscope $end
$upscope $end
$upscope $end
$scope module and_1 $end
$var wire 8 T# DATA2 [7:0] $end
$var wire 8 U# DATA1 [7:0] $end
$var reg 8 V# andOut [7:0] $end
$upscope $end
$scope module forward_1 $end
$var wire 8 W# DATA2 [7:0] $end
$var wire 8 X# DATA1 [7:0] $end
$var reg 8 Y# fOut [7:0] $end
$upscope $end
$scope module multiplier_8x8 $end
$var wire 8 Z# PRODUCT [7:0] $end
$var wire 8 [# temp [7:0] $end
$var wire 8 \# DATA2 [7:0] $end
$var wire 8 ]# DATA1 [7:0] $end
$scope module FA1_1 $end
$var wire 1 ^# a $end
$var wire 1 _# b $end
$var wire 1 `# cIn $end
$var wire 1 a# cOut $end
$var wire 1 b# sum $end
$upscope $end
$scope module FA1_2 $end
$var wire 1 c# a $end
$var wire 1 d# b $end
$var wire 1 e# cIn $end
$var wire 1 f# cOut $end
$var wire 1 g# sum $end
$upscope $end
$scope module FA1_3 $end
$var wire 1 h# a $end
$var wire 1 i# b $end
$var wire 1 j# cIn $end
$var wire 1 k# cOut $end
$var wire 1 l# sum $end
$upscope $end
$scope module FA1_4 $end
$var wire 1 m# a $end
$var wire 1 n# b $end
$var wire 1 o# cIn $end
$var wire 1 p# cOut $end
$var wire 1 q# sum $end
$upscope $end
$scope module FA1_5 $end
$var wire 1 r# a $end
$var wire 1 s# b $end
$var wire 1 t# cIn $end
$var wire 1 u# cOut $end
$var wire 1 v# sum $end
$upscope $end
$scope module FA1_6 $end
$var wire 1 w# a $end
$var wire 1 x# b $end
$var wire 1 y# cIn $end
$var wire 1 z# cOut $end
$var wire 1 {# sum $end
$upscope $end
$scope module FA2_1 $end
$var wire 1 |# a $end
$var wire 1 }# b $end
$var wire 1 ~# cIn $end
$var wire 1 !$ cOut $end
$var wire 1 "$ sum $end
$upscope $end
$scope module FA2_2 $end
$var wire 1 #$ a $end
$var wire 1 $$ b $end
$var wire 1 %$ cIn $end
$var wire 1 &$ cOut $end
$var wire 1 '$ sum $end
$upscope $end
$scope module FA2_3 $end
$var wire 1 ($ a $end
$var wire 1 )$ b $end
$var wire 1 *$ cIn $end
$var wire 1 +$ cOut $end
$var wire 1 ,$ sum $end
$upscope $end
$scope module FA2_4 $end
$var wire 1 -$ a $end
$var wire 1 .$ b $end
$var wire 1 /$ cIn $end
$var wire 1 0$ cOut $end
$var wire 1 1$ sum $end
$upscope $end
$scope module FA2_5 $end
$var wire 1 2$ a $end
$var wire 1 3$ b $end
$var wire 1 4$ cIn $end
$var wire 1 5$ cOut $end
$var wire 1 6$ sum $end
$upscope $end
$scope module FA3_1 $end
$var wire 1 7$ a $end
$var wire 1 8$ b $end
$var wire 1 9$ cIn $end
$var wire 1 :$ cOut $end
$var wire 1 ;$ sum $end
$upscope $end
$scope module FA3_2 $end
$var wire 1 <$ a $end
$var wire 1 =$ b $end
$var wire 1 >$ cIn $end
$var wire 1 ?$ cOut $end
$var wire 1 @$ sum $end
$upscope $end
$scope module FA3_3 $end
$var wire 1 A$ a $end
$var wire 1 B$ b $end
$var wire 1 C$ cIn $end
$var wire 1 D$ cOut $end
$var wire 1 E$ sum $end
$upscope $end
$scope module FA3_4 $end
$var wire 1 F$ a $end
$var wire 1 G$ b $end
$var wire 1 H$ cIn $end
$var wire 1 I$ cOut $end
$var wire 1 J$ sum $end
$upscope $end
$scope module FA4_1 $end
$var wire 1 K$ a $end
$var wire 1 L$ b $end
$var wire 1 M$ cIn $end
$var wire 1 N$ cOut $end
$var wire 1 O$ sum $end
$upscope $end
$scope module FA4_2 $end
$var wire 1 P$ a $end
$var wire 1 Q$ b $end
$var wire 1 R$ cIn $end
$var wire 1 S$ cOut $end
$var wire 1 T$ sum $end
$upscope $end
$scope module FA4_3 $end
$var wire 1 U$ a $end
$var wire 1 V$ b $end
$var wire 1 W$ cIn $end
$var wire 1 X$ cOut $end
$var wire 1 Y$ sum $end
$upscope $end
$scope module FA5_1 $end
$var wire 1 Z$ a $end
$var wire 1 [$ b $end
$var wire 1 \$ cIn $end
$var wire 1 ]$ cOut $end
$var wire 1 ^$ sum $end
$upscope $end
$scope module FA5_2 $end
$var wire 1 _$ a $end
$var wire 1 `$ b $end
$var wire 1 a$ cIn $end
$var wire 1 b$ cOut $end
$var wire 1 c$ sum $end
$upscope $end
$scope module FA6_1 $end
$var wire 1 d$ a $end
$var wire 1 e$ b $end
$var wire 1 f$ cIn $end
$var wire 1 g$ cOut $end
$var wire 1 h$ sum $end
$upscope $end
$scope module HA1_1 $end
$var wire 1 i$ a $end
$var wire 1 j$ b $end
$var wire 1 k$ cOut $end
$var wire 1 l$ sum $end
$upscope $end
$scope module HA1_2 $end
$var wire 1 m$ a $end
$var wire 1 n$ b $end
$var wire 1 o$ cOut $end
$var wire 1 p$ sum $end
$upscope $end
$scope module HA1_3 $end
$var wire 1 q$ a $end
$var wire 1 r$ b $end
$var wire 1 s$ cOut $end
$var wire 1 t$ sum $end
$upscope $end
$scope module HA1_4 $end
$var wire 1 u$ a $end
$var wire 1 v$ b $end
$var wire 1 w$ cOut $end
$var wire 1 x$ sum $end
$upscope $end
$scope module HA1_5 $end
$var wire 1 y$ a $end
$var wire 1 z$ b $end
$var wire 1 {$ cOut $end
$var wire 1 |$ sum $end
$upscope $end
$scope module HA1_6 $end
$var wire 1 }$ a $end
$var wire 1 ~$ b $end
$var wire 1 !% cOut $end
$var wire 1 "% sum $end
$upscope $end
$scope module HA1_7 $end
$var wire 1 #% a $end
$var wire 1 $% b $end
$var wire 1 %% cOut $end
$var wire 1 &% sum $end
$upscope $end
$upscope $end
$scope module or_1 $end
$var wire 8 '% DATA2 [7:0] $end
$var wire 8 (% DATA1 [7:0] $end
$var reg 8 )% orOut [7:0] $end
$upscope $end
$upscope $end
$scope module COMP $end
$var wire 8 *% IN [7:0] $end
$var reg 8 +% OUT [7:0] $end
$upscope $end
$scope module REGITSERS $end
$var wire 1 > CLK $end
$var wire 3 ,% INADDRESS [2:0] $end
$var wire 3 -% OUT1ADDRESS [2:0] $end
$var wire 3 .% OUT2ADDRESS [2:0] $end
$var wire 1 @ RESET $end
$var wire 1 s WRITE $end
$var wire 8 /% IN [7:0] $end
$var reg 8 0% OUT1 [7:0] $end
$var reg 8 1% OUT2 [7:0] $end
$var integer 32 2% i [31:0] $end
$scope begin $ivl_for_loop0 $end
$var integer 32 3% i [31:0] $end
$upscope $end
$upscope $end
$scope module add $end
$var wire 32 4% target [31:0] $end
$var wire 32 5% ex_JIMMEDIATE [31:0] $end
$var wire 32 6% PC_reg [31:0] $end
$upscope $end
$scope module flow $end
$var wire 1 f BRANCH $end
$var wire 1 i JUMP $end
$var wire 8 7% OPCODE [7:0] $end
$var wire 1 Z ZERO $end
$var wire 1 8% DECIDE $end
$var reg 1 ` OUT $end
$upscope $end
$scope module memux $end
$var wire 8 9% IN1 [7:0] $end
$var wire 8 :% IN2 [7:0] $end
$var wire 1 j SWITCH $end
$var reg 8 ;% OUT [7:0] $end
$upscope $end
$scope module mux1 $end
$var wire 8 <% IN1 [7:0] $end
$var wire 8 =% IN2 [7:0] $end
$var wire 1 k SWITCH $end
$var reg 8 >% OUT [7:0] $end
$upscope $end
$scope module mux2 $end
$var wire 8 ?% IN1 [7:0] $end
$var wire 8 @% IN2 [7:0] $end
$var wire 1 l SWITCH $end
$var reg 8 A% OUT [7:0] $end
$upscope $end
$scope module mux3 $end
$var wire 32 B% IN1 [31:0] $end
$var wire 1 ` SWITCH $end
$var wire 32 C% IN2 [31:0] $end
$var reg 32 D% OUT [31:0] $end
$upscope $end
$scope module my_adder $end
$var wire 32 E% PC [31:0] $end
$var reg 32 F% PC_reg [31:0] $end
$upscope $end
$scope module signextend $end
$var wire 8 G% extend [7:0] $end
$var wire 32 H% extended [31:0] $end
$upscope $end
$upscope $end
$scope module mymemory $end
$var wire 6 I% address [5:0] $end
$var wire 1 > clock $end
$var wire 1 9 read $end
$var wire 1 @ reset $end
$var wire 1 7 write $end
$var wire 32 J% writedata [31:0] $end
$var reg 1 : busywait $end
$var reg 1 K% readaccess $end
$var reg 32 L% readdata [31:0] $end
$var reg 1 M% writeaccess $end
$var integer 32 N% i [31:0] $end
$upscope $end
$upscope $end
$enddefinitions $end
$comment Show the parameter values. $end
$dumpall
b10 K
b1 J
b0 I
$end
#0
$dumpvars
b100000000 N%
0M%
bx L%
0K%
b0xxxxxxxx J%
bx I%
bx H%
bx G%
bx F%
bx E%
bx D%
bx C%
bx B%
bx A%
bx @%
bx ?%
bx >%
bx =%
bx <%
bx ;%
bx :%
bx 9%
x8%
bx 7%
bx 6%
bx 5%
bx 4%
b1000 3%
bx 2%
bx 1%
bx 0%
bx /%
bx .%
bx -%
bx ,%
bx +%
bx *%
bx )%
bx (%
bx '%
x&%
x%%
x$%
x#%
x"%
x!%
x~$
x}$
x|$
x{$
xz$
xy$
xx$
xw$
xv$
xu$
xt$
xs$
xr$
xq$
xp$
xo$
xn$
xm$
xl$
xk$
xj$
xi$
xh$
xg$
xf$
xe$
xd$
xc$
xb$
xa$
x`$
x_$
x^$
x]$
x\$
x[$
xZ$
xY$
xX$
xW$
xV$
xU$
xT$
xS$
xR$
xQ$
xP$
xO$
xN$
xM$
xL$
xK$
xJ$
xI$
xH$
xG$
xF$
xE$
xD$
xC$
xB$
xA$
x@$
x?$
x>$
x=$
x<$
x;$
x:$
x9$
x8$
x7$
x6$
x5$
x4$
x3$
x2$
x1$
x0$
x/$
x.$
x-$
x,$
x+$
x*$
x)$
x($
x'$
x&$
x%$
x$$
x#$
x"$
x!$
x~#
x}#
x|#
x{#
xz#
xy#
xx#
xw#
xv#
xu#
xt#
xs#
xr#
xq#
xp#
xo#
xn#
xm#
xl#
xk#
xj#
xi#
xh#
xg#
xf#
xe#
xd#
xc#
xb#
xa#
x`#
x_#
x^#
bx ]#
bx \#
bx [#
bx Z#
bx Y#
bx X#
bx W#
bx V#
bx U#
bx T#
bx S#
bx R#
bx0000 Q#
bx P#
bx O#
bx00 N#
bx M#
bx L#
bx0 K#
xJ#
xI#
xH#
0G#
xF#
xE#
xD#
0C#
xB#
xA#
x@#
0?#
x>#
x=#
x<#
0;#
x:#
x9#
x8#
07#
x6#
x5#
x4#
03#
x2#
x1#
x0#
0/#
x.#
x-#
x,#
x+#
x*#
x)#
x(#
x'#
x&#
x%#
x$#
x##
x"#
x!#
x~"
x}"
x|"
x{"
xz"
xy"
xx"
xw"
xv"
xu"
bx t"
bx s"
bx r"
xq"
xp"
xo"
xn"
xm"
xl"
xk"
xj"
xi"
xh"
xg"
xf"
xe"
xd"
xc"
xb"
xa"
x`"
x_"
x^"
x]"
x\"
x["
xZ"
bx Y"
bx X"
bx W"
xV"
xU"
xT"
xS"
xR"
xQ"
xP"
xO"
xN"
xM"
xL"
xK"
xJ"
xI"
xH"
xG"
xF"
xE"
xD"
xC"
xB"
xA"
x@"
x?"
bx >"
bx ="
bx <"
bx ;"
bx0 :"
bx 9"
bx 8"
bx00 7"
bx 6"
bx 5"
bx0000 4"
bx 3"
bx 2"
bx 1"
bx 0"
bx /"
bx ."
bx -"
bx ,"
x+"
x*"
x)"
x("
x'"
bx &"
bx %"
bx $"
bx #"
bx ""
bx !"
bx ~
bx }
bx |
bx {
bx z
bx y
bx x
bx w
bx v
bx u
bx t
xs
bx r
bx q
bx p
xo
bx n
bx m
xl
xk
xj
xi
bx h
bx g
xf
bx e
bx d
bx c
bx b
bx a
x`
bx _
bx ^
bx ]
bx \
bx [
xZ
bx Y
bx X
bx W
bx V
b1000 U
b111 T
xS
xR
b0 Q
b0 P
b0xxxxxxxx O
bx N
xM
bx L
bx H
bx G
bx F
bx E
bx D
bx C
xB
bx A
1@
bx ?
0>
bx =
0<
bx ;
0:
09
bx 8
07
b0xxxxxxxx 6
bx 5
x4
bx 3
x2
bx 1
bx 0
bx /
bx .
bx -
bx ,
bx +
bx *
bx )
bx (
bx '
bx &
bx %
bx $
bx #
bx "
bx !
$end
#40
b111 T
02
04
1>
#50
b0 (
b0 '
b0 &
b0 %
b0 $
b0 #
b0 "
b0 !
b1000 2%
b0 5
b0 n
b0 E%
0@
#60
b100 ^
b100 6%
b100 C%
b100 F%
#70
b100 _
b100 D%
0`
08%
b0 Y
b0 5%
b0 H%
b0 h
b0 G%
b0 t
b0 ,%
b1 q
b1 .%
b0 p
b0 -%
b1001 g
b1001 ?%
b0 m
b0 7%
b1001 ?
b1001 V
#80
0b$
0a$
0g$
0S$
0f$
0]$
0R$
0I$
0?$
0\$
0N$
0H$
0>$
0M$
05$
00$
0&$
0:$
09$
04$
0/$
0%$
0!$
0z#
0u#
0p#
0f#
0~#
0a#
0y#
0t#
0o#
0e#
0`#
0%%
0!%
0{$
0w$
0o$
0k$
0#%
0w#
0}$
02$
0r#
0y$
0F$
0-$
0m#
0u$
0_$
0P$
0<$
0#$
0c#
0m$
0e$
0[$
0L$
08$
0}#
0_#
0j$
0'"
0("
1)"
b1001 d
b1001 }
b1001 ""
b1001 ,"
b1001 T#
b1001 W#
b1001 \#
b1001 '%
b1001 A%
1j
0f
0i
0l
1s
b0 e
b0 v
0>
#90
0&%
0$%
0{#
0"%
0x#
0~$
06$
0v#
03$
0s#
0J$
01$
0|$
0G$
0.$
0z$
0Y$
0E$
0q#
0W$
0C$
0x$
0X$
0D$
0+$
0v$
0n#
0l#
0,$
0t$
0*$
0V$
0B$
0)$
0i#
0r$
0k#
0c$
0T$
0@$
0'$
0g#
0p$
0`$
0Q$
0=$
0$$
0d#
0n$
0j#
0h$
0^$
0O$
0;$
0"$
0b#
0s$
0l$
b0 C
b10 F
b1 D
b1001 b
b1001 /%
b1001 ;%
0U$
0A$
0($
0h#
0q$
0d$
0Z$
0K$
07$
0|#
0^#
0i$
b0 [#
b1001 =
b1001 H
b1001 c
b1001 !"
b1001 :%
0T"
0Q"
0N"
0K"
0H"
0E"
0B"
0?"
bx0000000 1"
bx0000000 L#
b0 :"
b0 K#
01#
00#
b1001 w
b1001 )%
b1001 x
b1001 Y#
b0 y
b0 V#
b100 X
b100 4%
b100 B%
b0 \
b0 *%
b0 1%
b0 <%
b0 1
b0 G
b0 ]
b0 ~
b0 #"
b0 -"
b0 ;"
b0 >"
b0 U#
b0 X#
b0 ]#
b0 (%
b0 0%
#99
0M
0R
#100
0Z
0B
b0 [
b0 +%
b0 =%
b1001 z
b1001 $"
#120
b0 |
b0 Z#
1>
#130
b100 5
b100 n
b100 E%
b1001 !
#140
b1000 _
b1000 D%
b1000 ^
b1000 6%
b1000 C%
b1000 F%
#150
0"%
0~$
0v#
0s#
1r$
01$
1g#
0.$
1d#
0E$
1"$
1t$
b1 d
b1 }
b1 ""
b1 ,"
b1 T#
b1 W#
b1 \#
b1 '%
b1 A%
0A$
0q$
1|#
b1001 [#
b1 Y
b1 5%
b1 H%
b1 h
b1 G%
b1 t
b1 ,%
b1 g
b1 ?%
1H"
1?"
bx0000100 1"
bx0000100 L#
b10010 :"
b10010 K#
11#
b10000000000000001 ?
b10000000000000001 V
b1001 1
b1001 G
b1001 ]
b1001 ~
b1001 #"
b1001 -"
b1001 ;"
b1001 >"
b1001 U#
b1001 X#
b1001 ]#
b1001 (%
b1001 0%
#160
b0 F
b1 b
b1 /%
b1 ;%
b1 =
b1 H
b1 c
b1 !"
b1 :%
b1 y
b1 V#
b1 x
b1 Y#
0>
#170
b1100 X
b1100 4%
b1100 B%
b1010 z
b1010 $"
#180
b1001 |
b1001 Z#
#200
1>
#210
b1 "
b1000 5
b1000 n
b1000 E%
