step1/part3 - cpu module/cpu_wavedata.vcd
$date
	Sat Apr 27 22:52:06 2024
$end
$version
	Icarus Verilog
$end
$timescale
	1s
$end
$scope module cpu_tb $end
$var wire 32 ! PC [31:0] $end
$var reg 1 " CLK $end
$var reg 32 # INSTRUCTION [31:0] $end
$var reg 1 $ RESET $end
$scope module mycpu $end
$var wire 1 " CLK $end
$var wire 32 % INSTRUCTION [31:0] $end
$var wire 1 $ RESET $end
$var wire 8 & REGOUT2 [7:0] $end
$var wire 8 ' REGOUT1 [7:0] $end
$var wire 8 ( ALURESULT [7:0] $end
$var reg 8 ) ALUIN2 [7:0] $end
$var reg 3 * ALUOP [2:0] $end
$var reg 8 + IMMEDIATE [7:0] $end
$var reg 8 , OPCODE [7:0] $end
$var reg 32 - PC [31:0] $end
$var reg 3 . READREG1 [2:0] $end
$var reg 3 / READREG2 [2:0] $end
$var reg 1 0 WRITEENABLE $end
$var reg 3 1 WRITEREG [2:0] $end
$scope module ALU $end
$var wire 8 2 DATA2 [7:0] $end
$var wire 3 3 SELECT [2:0] $end
$var wire 8 4 orOut [7:0] $end
$var wire 8 5 fOut [7:0] $end
$var wire 8 6 andOut [7:0] $end
$var wire 8 7 addOut [7:0] $end
$var wire 8 8 DATA1 [7:0] $end
$var reg 8 9 RESULT [7:0] $end
$scope module add_1 $end
$var wire 8 : DATA2 [7:0] $end
$var wire 8 ; DATA1 [7:0] $end
$var reg 8 < addOut [7:0] $end
$upscope $end
$scope module and_1 $end
$var wire 8 = DATA2 [7:0] $end
$var wire 8 > DATA1 [7:0] $end
$var reg 8 ? andOut [7:0] $end
$upscope $end
$scope module forward_1 $end
$var wire 8 @ DATA2 [7:0] $end
$var wire 8 A DATA1 [7:0] $end
$var reg 8 B fOut [7:0] $end
$upscope $end
$scope module or_1 $end
$var wire 8 C DATA2 [7:0] $end
$var wire 8 D DATA1 [7:0] $end
$var reg 8 E orOut [7:0] $end
$upscope $end
$upscope $end
$scope module REGITSERS $end
$var wire 1 " CLK $end
$var wire 8 F IN [7:0] $end
$var wire 3 G INADDRESS [2:0] $end
$var wire 3 H OUT1ADDRESS [2:0] $end
$var wire 3 I OUT2ADDRESS [2:0] $end
$var wire 1 $ RESET $end
$var wire 1 0 WRITE $end
$var reg 8 J OUT1 [7:0] $end
$var reg 8 K OUT2 [7:0] $end
$var integer 32 L i [31:0] $end
$upscope $end
$upscope $end
$upscope $end
$enddefinitions $end
$comment Show the parameter values. $end
$dumpall
$end
#0
$dumpvars
bx L
bx K
bx J
bx I
bx H
bx G
bx F
bx E
bx D
bx C
bx B
bx A
bx @
bx ?
bx >
bx =
bx <
bx ;
bx :
bx 9
bx 8
bx 7
bx 6
bx 5
bx 4
bx 3
bx 2
bx 1
x0
bx /
bx .
bx -
bx ,
bx +
bx *
bx )
bx (
bx '
bx &
bx %
1$
bx #
0"
bx !
$end
#4
b0 !
b0 -
1"
#5
b1000 L
b100 !
b100 -
0$
#6
b1000000000000000101 #
b1000000000000000101 %
#7
10
b101 )
b101 2
b101 :
b101 =
b101 @
b101 C
b0 *
b0 3
b100 1
b100 G
b101 /
b101 I
b0 .
b0 H
b101 +
b0 ,
#8
bx1x1 4
bx1x1 E
b0x0x 6
b0x0x ?
0"
#9
b101 (
b101 9
b101 F
b101 7
b101 <
b101 5
b101 B
b0 '
b0 8
b0 ;
b0 >
b0 A
b0 D
b0 J
#10
b0 6
b0 ?
b101 4
b101 E
#11
b0 &
b0 K
#12
1"
#13
b1000 !
b1000 -
#16
0"
#20
1"
#21
b1100 !
b1100 -
#24
0"
#28
1"
#29
b10000 !
b10000 -
#32
0"
#36
1"
#37
b10100 !
b10100 -
#40
0"
#44
1"
#45
b11000 !
b11000 -
#48
0"
#52
1"
#53
b11100 !
b11100 -
#56
0"
#60
1"
#61
b100000 !
b100000 -
#64
0"
#68
1"
#69
b100100 !
b100100 -
#72
0"
#76
1"
#77
b101000 !
b101000 -
#80
0"
#84
1"
#85
b101100 !
b101100 -
#88
0"
#92
1"
#93
b110000 !
b110000 -
#96
0"
#100
1"
#101
b110100 !
b110100 -
#104
0"
#108
1"
#109
b111000 !
b111000 -
#112
0"
#116
1"
#117
b111100 !
b111100 -
#120
0"
#124
1"
#125
b1000000 !
b1000000 -
#128
0"
#132
1"
#133
b1000100 !
b1000100 -
#136
0"
#140
1"
#141
b1001000 !
b1001000 -
#144
0"
#148
1"
#149
b1001100 !
b1001100 -
#152
0"
#156
1"
#157
b1010000 !
b1010000 -
#160
0"
#164
1"
#165
b1010100 !
b1010100 -
#168
0"
#172
1"
#173
b1011000 !
b1011000 -
#176
0"
#180
1"
#181
b1011100 !
b1011100 -
#184
0"
#188
1"
#189
b1100000 !
b1100000 -
#192
0"
#196
1"
#197
b1100100 !
b1100100 -
#200
0"
#204
1"
#205
b1101000 !
b1101000 -
#208
0"
#212
1"
#213
b1101100 !
b1101100 -
#216
0"
#220
1"
#221
b1110000 !
b1110000 -
#224
0"
#228
1"
#229
b1110100 !
b1110100 -
#232
0"
#236
1"
#237
b1111000 !
b1111000 -
#240
0"
#244
1"
#245
b1111100 !
b1111100 -
#248
0"
#252
1"
#253
b10000000 !
b10000000 -
#256
0"
#260
1"
#261
b10000100 !
b10000100 -
#264
0"
#268
1"
#269
b10001000 !
b10001000 -
#272
0"
#276
1"
#277
b10001100 !
b10001100 -
#280
0"
#284
1"
#285
b10010000 !
b10010000 -
#288
0"
#292
1"
#293
b10010100 !
b10010100 -
#296
0"
#300
1"
#301
b10011000 !
b10011000 -
#304
0"
#308
1"
#309
b10011100 !
b10011100 -
#312
0"
#316
1"
#317
b10100000 !
b10100000 -
#320
0"
#324
1"
#325
b10100100 !
b10100100 -
#328
0"
#332
1"
#333
b10101000 !
b10101000 -
#336
0"
#340
1"
#341
b10101100 !
b10101100 -
#344
0"
#348
1"
#349
b10110000 !
b10110000 -
#352
0"
#356
1"
#357
b10110100 !
b10110100 -
#360
0"
#364
1"
#365
b10111000 !
b10111000 -
#368
0"
#372
1"
#373
b10111100 !
b10111100 -
#376
0"
#380
1"
#381
b11000000 !
b11000000 -
#384
0"
#388
1"
#389
b11000100 !
b11000100 -
#392
0"
#396
1"
#397
b11001000 !
b11001000 -
#400
0"
#404
1"
#405
b11001100 !
b11001100 -
#408
0"
#412
1"
#413
b11010000 !
b11010000 -
#416
0"
#420
1"
#421
b11010100 !
b11010100 -
#424
0"
#428
1"
#429
b11011000 !
b11011000 -
#432
0"
#436
1"
#437
b11011100 !
b11011100 -
#440
0"
#444
1"
#445
b11100000 !
b11100000 -
#448
0"
#452
1"
#453
b11100100 !
b11100100 -
#456
0"
#460
1"
#461
b11101000 !
b11101000 -
#464
0"
#468
1"
#469
b11101100 !
b11101100 -
#472
0"
#476
1"
#477
b11110000 !
b11110000 -
#480
0"
#484
1"
#485
b11110100 !
b11110100 -
#488
0"
#492
1"
#493
b11111000 !
b11111000 -
#496
0"
#500
1"
#501
b11111100 !
b11111100 -
