step1/part3 - cpu module/cpu_wavedata1.vcd
$date
	Thu May 09 18:16:20 2024
$end
$version
	Icarus Verilog
$end
$timescale
	1s
$end
$scope module Testbench $end
$scope module mycpu $end
$var wire 1 ! CLK $end
$var wire 32 " INSTRUCTION [31:0] $end
$var wire 1 # RESET $end
$var wire 32 $ target [31:0] $end
$var wire 32 % ex_JIMMEDIATE [31:0] $end
$var wire 1 & ZERO $end
$var wire 8 ' TWOS_OUT [7:0] $end
$var wire 8 ( REGOUT2 [7:0] $end
$var wire 8 ) REGOUT1 [7:0] $end
$var wire 32 * PC_reg [31:0] $end
$var wire 32 + PC_OUT [31:0] $end
$var wire 32 , PC [31:0] $end
$var wire 1 - OUT $end
$var wire 8 . MUX1_OUT [7:0] $end
$var wire 8 / ALURESULT [7:0] $end
$var wire 8 0 ALUIN2 [7:0] $end
$var reg 3 1 ALUOP [2:0] $end
$var reg 1 2 BRANCH $end
$var reg 8 3 IMMEDIATE [7:0] $end
$var reg 8 4 JIMMEDIATE [7:0] $end
$var reg 1 5 JUMP $end
$var reg 1 6 MUX1_SWITCH $end
$var reg 1 7 MUX2_SWITCH $end
$var reg 8 8 OPCODE [7:0] $end
$var reg 3 9 READREG1 [2:0] $end
$var reg 3 : READREG2 [2:0] $end
$var reg 1 ; WRITEENABLE $end
$var reg 3 < WRITEREG [2:0] $end
$scope module ALU $end
$var wire 3 = SELECT [2:0] $end
$var wire 8 > orOut [7:0] $end
$var wire 8 ? fOut [7:0] $end
$var wire 8 @ andOut [7:0] $end
$var wire 8 A addOut [7:0] $end
$var wire 8 B DATA2 [7:0] $end
$var wire 8 C DATA1 [7:0] $end
$var reg 8 D RESULT [7:0] $end
$var reg 1 & ZERO $end
$scope module add_1 $end
$var wire 8 E DATA2 [7:0] $end
$var wire 8 F DATA1 [7:0] $end
$var reg 8 G addOut [7:0] $end
$upscope $end
$scope module and_1 $end
$var wire 8 H DATA2 [7:0] $end
$var wire 8 I DATA1 [7:0] $end
$var reg 8 J andOut [7:0] $end
$upscope $end
$scope module forward_1 $end
$var wire 8 K DATA2 [7:0] $end
$var wire 8 L DATA1 [7:0] $end
$var reg 8 M fOut [7:0] $end
$upscope $end
$scope module or_1 $end
$var wire 8 N DATA2 [7:0] $end
$var wire 8 O DATA1 [7:0] $end
$var reg 8 P orOut [7:0] $end
$upscope $end
$upscope $end
$scope module COMP $end
$var wire 8 Q IN [7:0] $end
$var reg 8 R OUT [7:0] $end
$upscope $end
$scope module REGITSERS $end
$var wire 1 ! CLK $end
$var wire 8 S IN [7:0] $end
$var wire 3 T INADDRESS [2:0] $end
$var wire 3 U OUT1ADDRESS [2:0] $end
$var wire 3 V OUT2ADDRESS [2:0] $end
$var wire 1 # RESET $end
$var wire 1 ; WRITE $end
$var reg 8 W OUT1 [7:0] $end
$var reg 8 X OUT2 [7:0] $end
$var integer 32 Y i [31:0] $end
$upscope $end
$scope module add $end
$var wire 32 Z target [31:0] $end
$var wire 32 [ ex_JIMMEDIATE [31:0] $end
$var wire 32 \ PC_reg [31:0] $end
$upscope $end
$scope module flow $end
$var wire 1 2 BRANCH $end
$var wire 1 5 JUMP $end
$var wire 1 & ZERO $end
$var reg 1 - OUT $end
$upscope $end
$scope module mux1 $end
$var wire 8 ] IN1 [7:0] $end
$var wire 8 ^ IN2 [7:0] $end
$var wire 1 6 SWITCH $end
$var reg 8 _ OUT [7:0] $end
$upscope $end
$scope module mux2 $end
$var wire 8 ` IN1 [7:0] $end
$var wire 8 a IN2 [7:0] $end
$var wire 1 7 SWITCH $end
$var reg 8 b OUT [7:0] $end
$upscope $end
$scope module mux3 $end
$var wire 32 c IN1 [31:0] $end
$var wire 1 - SWITCH $end
$var wire 32 d IN2 [31:0] $end
$var reg 32 e OUT [31:0] $end
$upscope $end
$scope module my_adder $end
$var wire 32 f PC [31:0] $end
$var reg 32 g PC_reg [31:0] $end
$upscope $end
$scope module mypc $end
$var wire 1 ! CLK $end
$var wire 32 h PC_OUT [31:0] $end
$var wire 1 # RESET $end
$var reg 32 i PC [31:0] $end
$upscope $end
$scope module signextend $end
$var wire 8 j extend [7:0] $end
$var wire 32 k extended [31:0] $end
$upscope $end
$upscope $end
$upscope $end
$enddefinitions $end
$comment Show the parameter values. $end
$dumpall
$end
#0
$dumpvars
bx k
bx j
bx i
bx h
bx g
bx f
bx e
bx d
bx c
bx b
bx a
bx `
bx _
bx ^
bx ]
bx \
bx [
bx Z
bx Y
bx X
bx W
bx V
bx U
bx T
bx S
bx R
bx Q
bx P
bx O
bx N
bx M
bx L
bx K
bx J
bx I
bx H
bx G
bx F
bx E
bx D
bx C
bx B
bx A
bx @
bx ?
bx >
bx =
bx <
x;
bx :
bx 9
bx 8
x7
x6
x5
bx 4
bx 3
x2
bx 1
bx 0
bx /
bx .
x-
bx ,
bx +
bx *
bx )
bx (
bx '
x&
bx %
bx $
1#
bx "
0!
$end
#4
1!
#5
b1000 Y
b0 ,
b0 f
b0 i
#6
b100 *
b100 \
b100 d
b100 g
0#
#7
b100 %
b100 [
b100 k
b100 4
b100 j
b100 <
b100 T
b101 :
b101 V
b0 9
b0 U
b101 3
b101 `
b0 8
b1000000000000000101 "
#8
b100 +
b100 e
b100 h
0-
b101 0
b101 B
b101 E
b101 H
b101 K
b101 N
b101 b
02
05
07
1;
b0 1
b0 =
0!
#9
b101 /
b101 D
b101 S
b101 >
b101 P
b101 ?
b101 M
b0 @
b0 J
b10100 $
b10100 Z
b10100 c
b0 (
b0 Q
b0 X
b0 ]
b0 )
b0 C
b0 F
b0 I
b0 L
b0 O
b0 W
#10
0&
b0 '
b0 R
b0 ^
b101 A
b101 G
#12
1!
#13
b100 ,
b100 f
b100 i
#14
b1000 +
b1000 e
b1000 h
b1000 *
b1000 \
b1000 d
b1000 g
#15
b10 %
b10 [
b10 k
b10 4
b10 j
b10 <
b10 T
b100000000000000101 "
#16
0!
#17
b10000 $
b10000 Z
b10000 c
#20
1!
#21
b1000 ,
b1000 f
b1000 i
#22
b1100 +
b1100 e
b1100 h
b1100 *
b1100 \
b1100 d
b1100 g
#23
b10 0
b10 B
b10 E
b10 H
b10 K
b10 N
b10 b
b1 %
b1 [
b1 k
b1 4
b1 j
b1 <
b1 T
b10 :
b10 V
b10 9
b10 U
b10 3
b10 `
b110 8
b110000000010000001000000010 "
#24
b10000 +
b10000 e
b10000 h
1-
b10 ?
b10 M
b10 >
b10 P
15
x7
0;
bx 1
bx =
0!
#25
b111 A
b111 G
b101 (
b101 Q
b101 X
b101 ]
b101 )
b101 C
b101 F
b101 I
b101 L
b101 O
b101 W
#26
b11111011 '
b11111011 R
b11111011 ^
b111 >
b111 P
#28
1!
#29
b10000 ,
b10000 f
b10000 i
#30
b10100 *
b10100 \
b10100 d
b10100 g
#31
b1 :
b1 V
b0 9
b0 U
b1 3
b1 `
b0 8
b10000000000000001 "
#32
0-
b1 0
b1 B
b1 E
b1 H
b1 K
b1 N
b1 b
b10 /
b10 D
b10 S
b10100 +
b10100 e
b10100 h
05
07
1;
b0 1
b0 =
b11000 $
b11000 Z
b11000 c
0!
#33
b1 /
b1 D
b1 S
b1 ?
b1 M
b1 >
b1 P
b0 (
b0 Q
b0 X
b0 ]
b0 )
b0 C
b0 F
b0 I
b0 L
b0 O
b0 W
#34
b0 '
b0 R
b0 ^
b1 A
b1 G
#36
1!
#37
b10100 ,
b10100 f
b10100 i
#38
b11000 +
b11000 e
b11000 h
b11000 *
b11000 \
b11000 d
b11000 g
#39
b10 0
b10 B
b10 E
b10 H
b10 K
b10 N
b10 b
b10 :
b10 V
b100 9
b100 U
b10 3
b10 `
b111 8
b111000000010000010000000010 "
#40
b0 0
b0 B
b0 E
b0 H
b0 K
b0 N
b0 b
b0 .
b0 _
b0 a
b10 >
b10 P
b10 ?
b10 M
12
17
16
0;
b1 1
b1 =
b11100 $
b11100 Z
b11100 c
0!
#41
b101 /
b101 D
b101 S
b0 ?
b0 M
b101 >
b101 P
b101 A
b101 G
b101 (
b101 Q
b101 X
b101 ]
b101 )
b101 C
b101 F
b101 I
b101 L
b101 O
b101 W
#42
b11111011 0
b11111011 B
b11111011 E
b11111011 H
b11111011 K
b11111011 N
b11111011 b
b11111011 .
b11111011 _
b11111011 a
b11111011 '
b11111011 R
b11111011 ^
#43
b11111111 >
b11111111 P
b11111011 ?
b11111011 M
b1 @
b1 J
#44
b11100 +
b11100 e
b11100 h
1-
b0 /
b0 D
b0 S
1&
b0 A
b0 G
1!
#45
b11100 ,
b11100 f
b11100 i
#46
b100000 *
b100000 \
b100000 d
b100000 g
#47
b110 %
b110 [
b110 k
b110 4
b110 j
b110 <
b110 T
b10 8
b10000001100000010000000010 "
#48
b100000 +
b100000 e
b100000 h
b101 0
b101 B
b101 E
b101 H
b101 K
b101 N
b101 b
0-
b101 .
b101 _
b101 a
02
06
1;
0!
#49
b101 @
b101 J
b101 ?
b101 M
b101 >
b101 P
b111000 $
b111000 Z
b111000 c
#50
b1010 /
b1010 D
b1010 S
0&
b1010 A
b1010 G
#52
1!
#53
b100000 ,
b100000 f
b100000 i
#54
b100100 +
b100100 e
b100100 h
b100100 *
b100100 \
b100100 d
b100100 g
#56
b111100 $
b111100 Z
b111100 c
0!
#60
1!
#61
b100100 ,
b100100 f
b100100 i
#62
b101000 +
b101000 e
b101000 h
b101000 *
b101000 \
b101000 d
b101000 g
#64
b1000000 $
b1000000 Z
b1000000 c
0!
#68
1!
#69
b101000 ,
b101000 f
b101000 i
#70
b101100 +
b101100 e
b101100 h
b101100 *
b101100 \
b101100 d
b101100 g
#72
b1000100 $
b1000100 Z
b1000100 c
0!
#76
1!
#77
b101100 ,
b101100 f
b101100 i
#78
b110000 +
b110000 e
b110000 h
b110000 *
b110000 \
b110000 d
b110000 g
#80
b1001000 $
b1001000 Z
b1001000 c
0!
#84
1!
#85
b110000 ,
b110000 f
b110000 i
#86
b110100 +
b110100 e
b110100 h
b110100 *
b110100 \
b110100 d
b110100 g
#88
b1001100 $
b1001100 Z
b1001100 c
0!
#92
1!
#93
b110100 ,
b110100 f
b110100 i
#94
b111000 +
b111000 e
b111000 h
b111000 *
b111000 \
b111000 d
b111000 g
#96
b1010000 $
b1010000 Z
b1010000 c
0!
#100
1!
#101
b111000 ,
b111000 f
b111000 i
#102
b111100 +
b111100 e
b111100 h
b111100 *
b111100 \
b111100 d
b111100 g
#104
b1010100 $
b1010100 Z
b1010100 c
0!
