step1/part4 - j and beq/cpu_wavedata.vcd
$date
	Wed May 15 08:21:08 2024
$end
$version
	Icarus Verilog
$end
$timescale
	1s
$end
$scope module cpu_tb $end
$scope module mycpu $end
$scope module REGITSERS $end
$var reg 8 ! \registers[0] [7:0] $end
$upscope $end
$upscope $end
$upscope $end
$scope module cpu_tb $end
$scope module mycpu $end
$scope module REGITSERS $end
$var reg 8 " \registers[1] [7:0] $end
$upscope $end
$upscope $end
$upscope $end
$scope module cpu_tb $end
$scope module mycpu $end
$scope module REGITSERS $end
$var reg 8 # \registers[2] [7:0] $end
$upscope $end
$upscope $end
$upscope $end
$scope module cpu_tb $end
$scope module mycpu $end
$scope module REGITSERS $end
$var reg 8 $ \registers[3] [7:0] $end
$upscope $end
$upscope $end
$upscope $end
$scope module cpu_tb $end
$scope module mycpu $end
$scope module REGITSERS $end
$var reg 8 % \registers[4] [7:0] $end
$upscope $end
$upscope $end
$upscope $end
$scope module cpu_tb $end
$scope module mycpu $end
$scope module REGITSERS $end
$var reg 8 & \registers[5] [7:0] $end
$upscope $end
$upscope $end
$upscope $end
$scope module cpu_tb $end
$scope module mycpu $end
$scope module REGITSERS $end
$var reg 8 ' \registers[6] [7:0] $end
$upscope $end
$upscope $end
$upscope $end
$scope module cpu_tb $end
$scope module mycpu $end
$scope module REGITSERS $end
$var reg 8 ( \registers[7] [7:0] $end
$upscope $end
$upscope $end
$upscope $end
$scope module cpu_tb $end
$var wire 32 ) PC [31:0] $end
$var reg 1 * CLK $end
$var reg 32 + INSTRUCTION [31:0] $end
$var reg 1 , RESET $end
$scope module mycpu $end
$var wire 1 * CLK $end
$var wire 32 - INSTRUCTION [31:0] $end
$var wire 1 , RESET $end
$var wire 32 . target [31:0] $end
$var wire 32 / ex_JIMMEDIATE [31:0] $end
$var wire 1 0 ZERO $end
$var wire 8 1 TWOS_OUT [7:0] $end
$var wire 8 2 REGOUT2 [7:0] $end
$var wire 8 3 REGOUT1 [7:0] $end
$var wire 32 4 PC_reg [31:0] $end
$var wire 32 5 PC_OUT [31:0] $end
$var wire 32 6 PC [31:0] $end
$var wire 1 7 OUT $end
$var wire 8 8 MUX1_OUT [7:0] $end
$var wire 8 9 ALURESULT [7:0] $end
$var wire 8 : ALUIN2 [7:0] $end
$var reg 3 ; ALUOP [2:0] $end
$var reg 1 < BRANCH $end
$var reg 8 = IMMEDIATE [7:0] $end
$var reg 8 > JIMMEDIATE [7:0] $end
$var reg 1 ? JUMP $end
$var reg 1 @ MUX1_SWITCH $end
$var reg 1 A MUX2_SWITCH $end
$var reg 8 B OPCODE [7:0] $end
$var reg 3 C READREG1 [2:0] $end
$var reg 3 D READREG2 [2:0] $end
$var reg 1 E WRITEENABLE $end
$var reg 3 F WRITEREG [2:0] $end
$scope module ALU $end
$var wire 3 G SELECT [2:0] $end
$var wire 8 H orOut [7:0] $end
$var wire 8 I fOut [7:0] $end
$var wire 8 J andOut [7:0] $end
$var wire 8 K addOut [7:0] $end
$var wire 8 L DATA2 [7:0] $end
$var wire 8 M DATA1 [7:0] $end
$var reg 8 N RESULT [7:0] $end
$var reg 1 0 ZERO $end
$scope module add_1 $end
$var wire 8 O DATA2 [7:0] $end
$var wire 8 P DATA1 [7:0] $end
$var reg 8 Q addOut [7:0] $end
$upscope $end
$scope module and_1 $end
$var wire 8 R DATA2 [7:0] $end
$var wire 8 S DATA1 [7:0] $end
$var reg 8 T andOut [7:0] $end
$upscope $end
$scope module forward_1 $end
$var wire 8 U DATA2 [7:0] $end
$var wire 8 V DATA1 [7:0] $end
$var reg 8 W fOut [7:0] $end
$upscope $end
$scope module or_1 $end
$var wire 8 X DATA2 [7:0] $end
$var wire 8 Y DATA1 [7:0] $end
$var reg 8 Z orOut [7:0] $end
$upscope $end
$upscope $end
$scope module COMP $end
$var wire 8 [ IN [7:0] $end
$var reg 8 \ OUT [7:0] $end
$upscope $end
$scope module REGITSERS $end
$var wire 1 * CLK $end
$var wire 8 ] IN [7:0] $end
$var wire 3 ^ INADDRESS [2:0] $end
$var wire 3 _ OUT1ADDRESS [2:0] $end
$var wire 3 ` OUT2ADDRESS [2:0] $end
$var wire 1 , RESET $end
$var wire 1 E WRITE $end
$var reg 8 a OUT1 [7:0] $end
$var reg 8 b OUT2 [7:0] $end
$var integer 32 c i [31:0] $end
$scope begin $ivl_for_loop0 $end
$var integer 32 d i [31:0] $end
$upscope $end
$upscope $end
$scope module add $end
$var wire 32 e target [31:0] $end
$var wire 32 f ex_JIMMEDIATE [31:0] $end
$var wire 32 g PC_reg [31:0] $end
$upscope $end
$scope module flow $end
$var wire 1 < BRANCH $end
$var wire 1 ? JUMP $end
$var wire 1 0 ZERO $end
$var reg 1 7 OUT $end
$upscope $end
$scope module mux1 $end
$var wire 8 h IN1 [7:0] $end
$var wire 8 i IN2 [7:0] $end
$var wire 1 @ SWITCH $end
$var reg 8 j OUT [7:0] $end
$upscope $end
$scope module mux2 $end
$var wire 8 k IN1 [7:0] $end
$var wire 8 l IN2 [7:0] $end
$var wire 1 A SWITCH $end
$var reg 8 m OUT [7:0] $end
$upscope $end
$scope module mux3 $end
$var wire 32 n IN1 [31:0] $end
$var wire 1 7 SWITCH $end
$var wire 32 o IN2 [31:0] $end
$var reg 32 p OUT [31:0] $end
$upscope $end
$scope module my_adder $end
$var wire 32 q PC [31:0] $end
$var reg 32 r PC_reg [31:0] $end
$upscope $end
$scope module mypc $end
$var wire 1 * CLK $end
$var wire 32 s PC_OUT [31:0] $end
$var wire 1 , RESET $end
$var reg 32 t PC [31:0] $end
$upscope $end
$scope module signextend $end
$var wire 8 u extend [7:0] $end
$var wire 32 v extended [31:0] $end
$upscope $end
$upscope $end
$upscope $end
$enddefinitions $end
$comment Show the parameter values. $end
$dumpall
$end
#0
$dumpvars
bx v
bx u
bx t
bx s
bx r
bx q
bx p
bx o
bx n
bx m
bx l
bx k
bx j
bx i
bx h
bx g
bx f
bx e
b1000 d
bx c
bx b
bx a
bx `
bx _
bx ^
bx ]
bx \
bx [
bx Z
bx Y
bx X
bx W
bx V
bx U
bx T
bx S
bx R
bx Q
bx P
bx O
bx N
bx M
bx L
bx K
bx J
bx I
bx H
bx G
bx F
xE
bx D
bx C
bx B
xA
x@
x?
bx >
bx =
x<
bx ;
bx :
bx 9
bx 8
x7
bx 6
bx 5
bx 4
bx 3
bx 2
bx 1
x0
bx /
bx .
bx -
1,
bx +
0*
bx )
bx (
bx '
bx &
bx %
bx $
bx #
bx "
bx !
$end
#4
1*
#5
b0 (
b0 '
b0 &
b0 %
b0 $
b0 #
b0 "
b0 !
b1000 c
b0 )
b0 6
b0 q
b0 t
0,
#6
b100 4
b100 g
b100 o
b100 r
#7
b100 /
b100 f
b100 v
b100 >
b100 u
b100 F
b100 ^
b10 D
b10 `
b0 C
b0 _
b1010 =
b1010 k
b0 B
b1000000000000001010 +
b1000000000000001010 -
#8
b100 5
b100 p
b100 s
07
b1010 :
b1010 L
b1010 O
b1010 R
b1010 U
b1010 X
b1010 m
0<
0?
0A
1E
b0 ;
b0 G
0*
#9
b1010 9
b1010 N
b1010 ]
b1010 H
b1010 Z
b1010 I
b1010 W
b0 J
b0 T
b10100 .
b10100 e
b10100 n
b0 2
b0 [
b0 b
b0 h
b0 3
b0 M
b0 P
b0 S
b0 V
b0 Y
b0 a
#10
00
b0 1
b0 \
b0 i
b1010 K
b1010 Q
#12
1*
#13
b100 )
b100 6
b100 q
b100 t
b1010 %
#14
b1000 5
b1000 p
b1000 s
b1000 4
b1000 g
b1000 o
b1000 r
#15
b1 :
b1 L
b1 O
b1 R
b1 U
b1 X
b1 m
b101 /
b101 f
b101 v
b101 >
b101 u
b101 F
b101 ^
b1 D
b1 `
b1 =
b1 k
b1010000000000000001 +
b1010000000000000001 -
#16
b1 9
b1 N
b1 ]
b1 I
b1 W
b1 H
b1 Z
0*
#17
b1 K
b1 Q
b11100 .
b11100 e
b11100 n
#20
1*
#21
b1 &
b1000 )
b1000 6
b1000 q
b1000 t
#22
b1100 5
b1100 p
b1100 s
b1100 4
b1100 g
b1100 o
b1100 r
#23
b110 /
b110 f
b110 v
b110 >
b110 u
b110 F
b110 ^
b1100000000000000001 +
b1100000000000000001 -
#24
0*
#25
b100100 .
b100100 e
b100100 n
#28
1*
#29
b1100 )
b1100 6
b1100 q
b1100 t
b1 '
#30
b10000 5
b10000 p
b10000 s
b10000 4
b10000 g
b10000 o
b10000 r
#31
b1001 :
b1001 L
b1001 O
b1001 R
b1001 U
b1001 X
b1001 m
b111 /
b111 f
b111 v
b111 >
b111 u
b111 F
b111 ^
b1001 =
b1001 k
b1110000000000001001 +
b1110000000000001001 -
#32
b1001 9
b1001 N
b1001 ]
b1001 H
b1001 Z
b1001 I
b1001 W
0*
#33
b1001 K
b1001 Q
b101100 .
b101100 e
b101100 n
#36
1*
#37
b1001 (
b10000 )
b10000 6
b10000 q
b10000 t
#38
b10100 5
b10100 p
b10100 s
b10100 4
b10100 g
b10100 o
b10100 r
#39
b101 :
b101 L
b101 O
b101 R
b101 U
b101 X
b101 m
b100 /
b100 f
b100 v
b100 >
b100 u
b100 F
b100 ^
b101 D
b101 `
b100 C
b100 _
b101 =
b101 k
b11 B
b11000001000000010000000101 +
b11000001000000010000000101 -
#40
b0 :
b0 L
b0 O
b0 R
b0 U
b0 X
b0 m
b0 8
b0 j
b0 l
b101 I
b101 W
b101 H
b101 Z
1A
1@
b1 ;
b1 G
0*
#41
b1010 9
b1010 N
b1010 ]
b1010 H
b1010 Z
b0 I
b0 W
b1010 K
b1010 Q
b100100 .
b100100 e
b100100 n
b1 2
b1 [
b1 b
b1 h
b1010 3
b1010 M
b1010 P
b1010 S
b1010 V
b1010 Y
b1010 a
#42
b11111111 :
b11111111 L
b11111111 O
b11111111 R
b11111111 U
b11111111 X
b11111111 m
b11111111 8
b11111111 j
b11111111 l
b11111111 1
b11111111 \
b11111111 i
#43
b1010 J
b1010 T
b11111111 I
b11111111 W
b11111111 H
b11111111 Z
#44
b1001 9
b1001 N
b1001 ]
b1001 K
b1001 Q
1*
#45
b10100 )
b10100 6
b10100 q
b10100 t
b1001 %
#46
b11000 5
b11000 p
b11000 s
b11000 4
b11000 g
b11000 o
b11000 r
#47
b1 /
b1 f
b1 v
b1 >
b1 u
b1 F
b1 ^
b110 D
b110 `
b110 =
b110 k
b111 B
b111000000010000010000000110 +
b111000000010000010000000110 -
#48
1<
0E
0*
#49
b11100 .
b11100 e
b11100 n
b1001 3
b1001 M
b1001 P
b1001 S
b1001 V
b1001 Y
b1001 a
#50
b1001 J
b1001 T
#51
b1000 9
b1000 N
b1000 ]
b1000 K
b1000 Q
#52
1*
#53
b11000 )
b11000 6
b11000 q
b11000 t
#54
b11100 5
b11100 p
b11100 s
b11100 4
b11100 g
b11100 o
b11100 r
#55
b11111111111111111111111111111101 /
b11111111111111111111111111111101 f
b11111111111111111111111111111101 v
b11111101 >
b11111101 u
b101 F
b101 ^
b0 D
b0 `
b0 C
b0 _
b0 =
b0 k
b110 B
b110111111010000000000000000 +
b110111111010000000000000000 -
#56
17
0<
1?
xA
x@
bx ;
bx G
0*
#57
b10000 5
b10000 p
b10000 s
b10000 .
b10000 e
b10000 n
b0 2
b0 [
b0 b
b0 h
b0 3
b0 M
b0 P
b0 S
b0 V
b0 Y
b0 a
#58
b0 1
b0 \
b0 i
b0 J
b0 T
#59
b11111111 K
b11111111 Q
#60
1*
#61
b10000 )
b10000 6
b10000 q
b10000 t
#62
b10100 4
b10100 g
b10100 o
b10100 r
#63
b100 /
b100 f
b100 v
b100 >
b100 u
b100 F
b100 ^
b101 D
b101 `
b100 C
b100 _
b101 =
b101 k
b11 B
b11000001000000010000000101 +
b11000001000000010000000101 -
#64
b10100 5
b10100 p
b10100 s
07
b0 :
b0 L
b0 O
b0 R
b0 U
b0 X
b0 m
b0 8
b0 j
b0 l
b11111111 9
b11111111 N
b11111111 ]
0?
1A
1@
1E
b1 ;
b1 G
0*
#65
b1001 H
b1001 Z
b0 I
b0 W
b100100 .
b100100 e
b100100 n
b1 2
b1 [
b1 b
b1 h
b1001 3
b1001 M
b1001 P
b1001 S
b1001 V
b1001 Y
b1001 a
#66
b11111111 :
b11111111 L
b11111111 O
b11111111 R
b11111111 U
b11111111 X
b11111111 m
b11111111 8
b11111111 j
b11111111 l
b1001 9
b1001 N
b1001 ]
b11111111 1
b11111111 \
b11111111 i
b1001 K
b1001 Q
#67
b1001 J
b1001 T
b11111111 I
b11111111 W
b11111111 H
b11111111 Z
#68
b1000 9
b1000 N
b1000 ]
b1000 K
b1000 Q
1*
#69
b1000 %
b10100 )
b10100 6
b10100 q
b10100 t
#70
b11000 5
b11000 p
b11000 s
b11000 4
b11000 g
b11000 o
b11000 r
#71
b1 /
b1 f
b1 v
b1 >
b1 u
b1 F
b1 ^
b110 D
b110 `
b110 =
b110 k
b111 B
b111000000010000010000000110 +
b111000000010000010000000110 -
#72
1<
0E
0*
#73
b11100 .
b11100 e
b11100 n
b1000 3
b1000 M
b1000 P
b1000 S
b1000 V
b1000 Y
b1000 a
#74
b1000 J
b1000 T
#75
b111 9
b111 N
b111 ]
b111 K
b111 Q
#76
1*
#77
b11000 )
b11000 6
b11000 q
b11000 t
#78
b11100 5
b11100 p
b11100 s
b11100 4
b11100 g
b11100 o
b11100 r
#79
b11111111111111111111111111111101 /
b11111111111111111111111111111101 f
b11111111111111111111111111111101 v
b11111101 >
b11111101 u
b101 F
b101 ^
b0 D
b0 `
b0 C
b0 _
b0 =
b0 k
b110 B
b110111111010000000000000000 +
b110111111010000000000000000 -
#80
17
0<
1?
xA
x@
bx ;
bx G
0*
#81
b10000 5
b10000 p
b10000 s
b10000 .
b10000 e
b10000 n
b0 2
b0 [
b0 b
b0 h
b0 3
b0 M
b0 P
b0 S
b0 V
b0 Y
b0 a
#82
b0 1
b0 \
b0 i
b0 J
b0 T
#83
b11111111 K
b11111111 Q
#84
1*
#85
b10000 )
b10000 6
b10000 q
b10000 t
#86
b10100 4
b10100 g
b10100 o
b10100 r
#87
b100 /
b100 f
b100 v
b100 >
b100 u
b100 F
b100 ^
b101 D
b101 `
b100 C
b100 _
b101 =
b101 k
b11 B
b11000001000000010000000101 +
b11000001000000010000000101 -
#88
b10100 5
b10100 p
b10100 s
07
b0 :
b0 L
b0 O
b0 R
b0 U
b0 X
b0 m
b0 8
b0 j
b0 l
b11111111 9
b11111111 N
b11111111 ]
0?
1A
1@
1E
b1 ;
b1 G
0*
#89
b1000 H
b1000 Z
b0 I
b0 W
b100100 .
b100100 e
b100100 n
b1 2
b1 [
b1 b
b1 h
b1000 3
b1000 M
b1000 P
b1000 S
b1000 V
b1000 Y
b1000 a
#90
b11111111 :
b11111111 L
b11111111 O
b11111111 R
b11111111 U
b11111111 X
b11111111 m
b11111111 8
b11111111 j
b11111111 l
b1000 9
b1000 N
b1000 ]
b11111111 1
b11111111 \
b11111111 i
b1000 K
b1000 Q
#91
b1000 J
b1000 T
b11111111 I
b11111111 W
b11111111 H
b11111111 Z
#92
b111 9
b111 N
b111 ]
b111 K
b111 Q
1*
#93
b111 %
b10100 )
b10100 6
b10100 q
b10100 t
#94
b11000 5
b11000 p
b11000 s
b11000 4
b11000 g
b11000 o
b11000 r
#95
b1 /
b1 f
b1 v
b1 >
b1 u
b1 F
b1 ^
b110 D
b110 `
b110 =
b110 k
b111 B
b111000000010000010000000110 +
b111000000010000010000000110 -
#96
1<
0E
0*
#97
b11100 .
b11100 e
b11100 n
b111 3
b111 M
b111 P
b111 S
b111 V
b111 Y
b111 a
#98
b111 J
b111 T
#99
b110 9
b110 N
b110 ]
b110 K
b110 Q
#100
1*
#101
b11000 )
b11000 6
b11000 q
b11000 t
#102
b11100 5
b11100 p
b11100 s
b11100 4
b11100 g
b11100 o
b11100 r
#103
b11111111111111111111111111111101 /
b11111111111111111111111111111101 f
b11111111111111111111111111111101 v
b11111101 >
b11111101 u
b101 F
b101 ^
b0 D
b0 `
b0 C
b0 _
b0 =
b0 k
b110 B
b110111111010000000000000000 +
b110111111010000000000000000 -
#104
17
0<
1?
xA
x@
bx ;
bx G
0*
#105
b10000 5
b10000 p
b10000 s
b10000 .
b10000 e
b10000 n
b0 2
b0 [
b0 b
b0 h
b0 3
b0 M
b0 P
b0 S
b0 V
b0 Y
b0 a
#106
b0 1
b0 \
b0 i
b0 J
b0 T
#107
b11111111 K
b11111111 Q
#108
1*
#109
b10000 )
b10000 6
b10000 q
b10000 t
#110
b10100 4
b10100 g
b10100 o
b10100 r
#111
b100 /
b100 f
b100 v
b100 >
b100 u
b100 F
b100 ^
b101 D
b101 `
b100 C
b100 _
b101 =
b101 k
b11 B
b11000001000000010000000101 +
b11000001000000010000000101 -
#112
b10100 5
b10100 p
b10100 s
07
b0 :
b0 L
b0 O
b0 R
b0 U
b0 X
b0 m
b0 8
b0 j
b0 l
b11111111 9
b11111111 N
b11111111 ]
0?
1A
1@
1E
b1 ;
b1 G
0*
#113
b111 H
b111 Z
b0 I
b0 W
b100100 .
b100100 e
b100100 n
b1 2
b1 [
b1 b
b1 h
b111 3
b111 M
b111 P
b111 S
b111 V
b111 Y
b111 a
#114
b11111111 :
b11111111 L
b11111111 O
b11111111 R
b11111111 U
b11111111 X
b11111111 m
b11111111 8
b11111111 j
b11111111 l
b111 9
b111 N
b111 ]
b11111111 1
b11111111 \
b11111111 i
b111 K
b111 Q
#115
b111 J
b111 T
b11111111 I
b11111111 W
b11111111 H
b11111111 Z
#116
b110 9
b110 N
b110 ]
b110 K
b110 Q
1*
#117
b110 %
b10100 )
b10100 6
b10100 q
b10100 t
#118
b11000 5
b11000 p
b11000 s
b11000 4
b11000 g
b11000 o
b11000 r
#119
b1 /
b1 f
b1 v
b1 >
b1 u
b1 F
b1 ^
b110 D
b110 `
b110 =
b110 k
b111 B
b111000000010000010000000110 +
b111000000010000010000000110 -
#120
1<
0E
0*
#121
b11100 .
b11100 e
b11100 n
b110 3
b110 M
b110 P
b110 S
b110 V
b110 Y
b110 a
#122
b110 J
b110 T
#123
b101 9
b101 N
b101 ]
b101 K
b101 Q
#124
1*
#125
b11000 )
b11000 6
b11000 q
b11000 t
#126
b11100 5
b11100 p
b11100 s
b11100 4
b11100 g
b11100 o
b11100 r
#127
b11111111111111111111111111111101 /
b11111111111111111111111111111101 f
b11111111111111111111111111111101 v
b11111101 >
b11111101 u
b101 F
b101 ^
b0 D
b0 `
b0 C
b0 _
b0 =
b0 k
b110 B
b110111111010000000000000000 +
b110111111010000000000000000 -
#128
17
0<
1?
xA
x@
bx ;
bx G
0*
#129
b10000 5
b10000 p
b10000 s
b10000 .
b10000 e
b10000 n
b0 2
b0 [
b0 b
b0 h
b0 3
b0 M
b0 P
b0 S
b0 V
b0 Y
b0 a
#130
b0 1
b0 \
b0 i
b0 J
b0 T
#131
b11111111 K
b11111111 Q
#132
1*
#133
b10000 )
b10000 6
b10000 q
b10000 t
#134
b10100 4
b10100 g
b10100 o
b10100 r
#135
b100 /
b100 f
b100 v
b100 >
b100 u
b100 F
b100 ^
b101 D
b101 `
b100 C
b100 _
b101 =
b101 k
b11 B
b11000001000000010000000101 +
b11000001000000010000000101 -
#136
b10100 5
b10100 p
b10100 s
07
b0 :
b0 L
b0 O
b0 R
b0 U
b0 X
b0 m
b0 8
b0 j
b0 l
b11111111 9
b11111111 N
b11111111 ]
0?
1A
1@
1E
b1 ;
b1 G
0*
#137
b110 H
b110 Z
b0 I
b0 W
b100100 .
b100100 e
b100100 n
b1 2
b1 [
b1 b
b1 h
b110 3
b110 M
b110 P
b110 S
b110 V
b110 Y
b110 a
#138
b11111111 :
b11111111 L
b11111111 O
b11111111 R
b11111111 U
b11111111 X
b11111111 m
b11111111 8
b11111111 j
b11111111 l
b110 9
b110 N
b110 ]
b11111111 1
b11111111 \
b11111111 i
b110 K
b110 Q
#139
b110 J
b110 T
b11111111 I
b11111111 W
b11111111 H
b11111111 Z
#140
b101 9
b101 N
b101 ]
b101 K
b101 Q
1*
#141
b101 %
b10100 )
b10100 6
b10100 q
b10100 t
#142
b11000 5
b11000 p
b11000 s
b11000 4
b11000 g
b11000 o
b11000 r
#143
b1 /
b1 f
b1 v
b1 >
b1 u
b1 F
b1 ^
b110 D
b110 `
b110 =
b110 k
b111 B
b111000000010000010000000110 +
b111000000010000010000000110 -
#144
1<
0E
0*
#145
b11100 .
b11100 e
b11100 n
b101 3
b101 M
b101 P
b101 S
b101 V
b101 Y
b101 a
#146
b101 J
b101 T
#147
b100 9
b100 N
b100 ]
b100 K
b100 Q
#148
1*
#149
b11000 )
b11000 6
b11000 q
b11000 t
#150
b11100 5
b11100 p
b11100 s
b11100 4
b11100 g
b11100 o
b11100 r
#151
b11111111111111111111111111111101 /
b11111111111111111111111111111101 f
b11111111111111111111111111111101 v
b11111101 >
b11111101 u
b101 F
b101 ^
b0 D
b0 `
b0 C
b0 _
b0 =
b0 k
b110 B
b110111111010000000000000000 +
b110111111010000000000000000 -
#152
17
0<
1?
xA
x@
bx ;
bx G
0*
#153
b10000 5
b10000 p
b10000 s
b10000 .
b10000 e
b10000 n
b0 2
b0 [
b0 b
b0 h
b0 3
b0 M
b0 P
b0 S
b0 V
b0 Y
b0 a
#154
b0 1
b0 \
b0 i
b0 J
b0 T
#155
b11111111 K
b11111111 Q
#156
1*
#157
b10000 )
b10000 6
b10000 q
b10000 t
#158
b10100 4
b10100 g
b10100 o
b10100 r
#159
b100 /
b100 f
b100 v
b100 >
b100 u
b100 F
b100 ^
b101 D
b101 `
b100 C
b100 _
b101 =
b101 k
b11 B
b11000001000000010000000101 +
b11000001000000010000000101 -
#160
b10100 5
b10100 p
b10100 s
07
b0 :
b0 L
b0 O
b0 R
b0 U
b0 X
b0 m
b0 8
b0 j
b0 l
b11111111 9
b11111111 N
b11111111 ]
0?
1A
1@
1E
b1 ;
b1 G
0*
#161
b101 H
b101 Z
b0 I
b0 W
b100100 .
b100100 e
b100100 n
b1 2
b1 [
b1 b
b1 h
b101 3
b101 M
b101 P
b101 S
b101 V
b101 Y
b101 a
#162
b11111111 :
b11111111 L
b11111111 O
b11111111 R
b11111111 U
b11111111 X
b11111111 m
b11111111 8
b11111111 j
b11111111 l
b101 9
b101 N
b101 ]
b11111111 1
b11111111 \
b11111111 i
b101 K
b101 Q
#163
b101 J
b101 T
b11111111 I
b11111111 W
b11111111 H
b11111111 Z
#164
b100 9
b100 N
b100 ]
b100 K
b100 Q
1*
#165
b100 %
b10100 )
b10100 6
b10100 q
b10100 t
#166
b11000 5
b11000 p
b11000 s
b11000 4
b11000 g
b11000 o
b11000 r
#167
b1 /
b1 f
b1 v
b1 >
b1 u
b1 F
b1 ^
b110 D
b110 `
b110 =
b110 k
b111 B
b111000000010000010000000110 +
b111000000010000010000000110 -
#168
1<
0E
0*
#169
b11100 .
b11100 e
b11100 n
b100 3
b100 M
b100 P
b100 S
b100 V
b100 Y
b100 a
#170
b100 J
b100 T
#171
b11 9
b11 N
b11 ]
b11 K
b11 Q
#172
1*
#173
b11000 )
b11000 6
b11000 q
b11000 t
#174
b11100 5
b11100 p
b11100 s
b11100 4
b11100 g
b11100 o
b11100 r
#175
b11111111111111111111111111111101 /
b11111111111111111111111111111101 f
b11111111111111111111111111111101 v
b11111101 >
b11111101 u
b101 F
b101 ^
b0 D
b0 `
b0 C
b0 _
b0 =
b0 k
b110 B
b110111111010000000000000000 +
b110111111010000000000000000 -
#176
17
0<
1?
xA
x@
bx ;
bx G
0*
#177
b10000 5
b10000 p
b10000 s
b10000 .
b10000 e
b10000 n
b0 2
b0 [
b0 b
b0 h
b0 3
b0 M
b0 P
b0 S
b0 V
b0 Y
b0 a
#178
b0 1
b0 \
b0 i
b0 J
b0 T
#179
b11111111 K
b11111111 Q
#180
1*
#181
b10000 )
b10000 6
b10000 q
b10000 t
#182
b10100 4
b10100 g
b10100 o
b10100 r
#183
b100 /
b100 f
b100 v
b100 >
b100 u
b100 F
b100 ^
b101 D
b101 `
b100 C
b100 _
b101 =
b101 k
b11 B
b11000001000000010000000101 +
b11000001000000010000000101 -
#184
b10100 5
b10100 p
b10100 s
07
b0 :
b0 L
b0 O
b0 R
b0 U
b0 X
b0 m
b0 8
b0 j
b0 l
b11111111 9
b11111111 N
b11111111 ]
0?
1A
1@
1E
b1 ;
b1 G
0*
#185
b100 H
b100 Z
b0 I
b0 W
b100100 .
b100100 e
b100100 n
b1 2
b1 [
b1 b
b1 h
b100 3
b100 M
b100 P
b100 S
b100 V
b100 Y
b100 a
#186
b11111111 :
b11111111 L
b11111111 O
b11111111 R
b11111111 U
b11111111 X
b11111111 m
b11111111 8
b11111111 j
b11111111 l
b100 9
b100 N
b100 ]
b11111111 1
b11111111 \
b11111111 i
b100 K
b100 Q
#187
b100 J
b100 T
b11111111 I
b11111111 W
b11111111 H
b11111111 Z
#188
b11 9
b11 N
b11 ]
b11 K
b11 Q
1*
#189
b11 %
b10100 )
b10100 6
b10100 q
b10100 t
#190
b11000 5
b11000 p
b11000 s
b11000 4
b11000 g
b11000 o
b11000 r
#191
b1 /
b1 f
b1 v
b1 >
b1 u
b1 F
b1 ^
b110 D
b110 `
b110 =
b110 k
b111 B
b111000000010000010000000110 +
b111000000010000010000000110 -
#192
1<
0E
0*
#193
b11100 .
b11100 e
b11100 n
b11 3
b11 M
b11 P
b11 S
b11 V
b11 Y
b11 a
#194
b11 J
b11 T
#195
b10 9
b10 N
b10 ]
b10 K
b10 Q
#196
1*
#197
b11000 )
b11000 6
b11000 q
b11000 t
#198
b11100 5
b11100 p
b11100 s
b11100 4
b11100 g
b11100 o
b11100 r
#199
b11111111111111111111111111111101 /
b11111111111111111111111111111101 f
b11111111111111111111111111111101 v
b11111101 >
b11111101 u
b101 F
b101 ^
b0 D
b0 `
b0 C
b0 _
b0 =
b0 k
b110 B
b110111111010000000000000000 +
b110111111010000000000000000 -
#200
17
0<
1?
xA
x@
bx ;
bx G
0*
#201
b10000 5
b10000 p
b10000 s
b10000 .
b10000 e
b10000 n
b0 2
b0 [
b0 b
b0 h
b0 3
b0 M
b0 P
b0 S
b0 V
b0 Y
b0 a
#202
b0 1
b0 \
b0 i
b0 J
b0 T
#203
b11111111 K
b11111111 Q
#204
1*
#205
b10000 )
b10000 6
b10000 q
b10000 t
#206
b10100 4
b10100 g
b10100 o
b10100 r
#207
b100 /
b100 f
b100 v
b100 >
b100 u
b100 F
b100 ^
b101 D
b101 `
b100 C
b100 _
b101 =
b101 k
b11 B
b11000001000000010000000101 +
b11000001000000010000000101 -
#208
b10100 5
b10100 p
b10100 s
07
b0 :
b0 L
b0 O
b0 R
b0 U
b0 X
b0 m
b0 8
b0 j
b0 l
b11111111 9
b11111111 N
b11111111 ]
0?
1A
1@
1E
b1 ;
b1 G
0*
#209
b11 H
b11 Z
b0 I
b0 W
b100100 .
b100100 e
b100100 n
b1 2
b1 [
b1 b
b1 h
b11 3
b11 M
b11 P
b11 S
b11 V
b11 Y
b11 a
#210
b11111111 :
b11111111 L
b11111111 O
b11111111 R
b11111111 U
b11111111 X
b11111111 m
b11111111 8
b11111111 j
b11111111 l
b11 9
b11 N
b11 ]
b11111111 1
b11111111 \
b11111111 i
b11 K
b11 Q
#211
b11 J
b11 T
b11111111 I
b11111111 W
b11111111 H
b11111111 Z
#212
b10 9
b10 N
b10 ]
b10 K
b10 Q
1*
#213
b10 %
b10100 )
b10100 6
b10100 q
b10100 t
#214
b11000 5
b11000 p
b11000 s
b11000 4
b11000 g
b11000 o
b11000 r
#215
b1 /
b1 f
b1 v
b1 >
b1 u
b1 F
b1 ^
b110 D
b110 `
b110 =
b110 k
b111 B
b111000000010000010000000110 +
b111000000010000010000000110 -
#216
1<
0E
0*
#217
b11100 .
b11100 e
b11100 n
b10 3
b10 M
b10 P
b10 S
b10 V
b10 Y
b10 a
#218
b10 J
b10 T
#219
b1 9
b1 N
b1 ]
b1 K
b1 Q
#220
1*
#221
b11000 )
b11000 6
b11000 q
b11000 t
#222
b11100 5
b11100 p
b11100 s
b11100 4
b11100 g
b11100 o
b11100 r
#223
b11111111111111111111111111111101 /
b11111111111111111111111111111101 f
b11111111111111111111111111111101 v
b11111101 >
b11111101 u
b101 F
b101 ^
b0 D
b0 `
b0 C
b0 _
b0 =
b0 k
b110 B
b110111111010000000000000000 +
b110111111010000000000000000 -
#224
17
0<
1?
xA
x@
bx ;
bx G
0*
#225
b10000 5
b10000 p
b10000 s
b10000 .
b10000 e
b10000 n
b0 2
b0 [
b0 b
b0 h
b0 3
b0 M
b0 P
b0 S
b0 V
b0 Y
b0 a
#226
b0 1
b0 \
b0 i
b0 J
b0 T
#227
b11111111 K
b11111111 Q
#228
1*
#229
b10000 )
b10000 6
b10000 q
b10000 t
#230
b10100 4
b10100 g
b10100 o
b10100 r
#231
b100 /
b100 f
b100 v
b100 >
b100 u
b100 F
b100 ^
b101 D
b101 `
b100 C
b100 _
b101 =
b101 k
b11 B
b11000001000000010000000101 +
b11000001000000010000000101 -
#232
b10100 5
b10100 p
b10100 s
07
b0 :
b0 L
b0 O
b0 R
b0 U
b0 X
b0 m
b0 8
b0 j
b0 l
b11111111 9
b11111111 N
b11111111 ]
0?
1A
1@
1E
b1 ;
b1 G
0*
#233
b10 H
b10 Z
b0 I
b0 W
b100100 .
b100100 e
b100100 n
b1 2
b1 [
b1 b
b1 h
b10 3
b10 M
b10 P
b10 S
b10 V
b10 Y
b10 a
#234
b11111111 :
b11111111 L
b11111111 O
b11111111 R
b11111111 U
b11111111 X
b11111111 m
b11111111 8
b11111111 j
b11111111 l
b10 9
b10 N
b10 ]
b11111111 1
b11111111 \
b11111111 i
b10 K
b10 Q
#235
b10 J
b10 T
b11111111 I
b11111111 W
b11111111 H
b11111111 Z
